Aprendizaje Supervisado
…
tune_DF <- tune_grid(
  model_RF,
  fraud~ .,
  resamples = fold_df, 
  grid = param_grid, 
  metrics = metric_set(accuracy, roc_auc, precision)
)

Las métricas provienen del rendimiento de la validación cruzada a través de los diferentes valores de los parámetros.

Código

collect_metrics(tune_DF)

# A tibble: 27 × 8
    mtry min_n .metric   .estimator  mean     n  std_err .config             
   <int> <int> <chr>     <chr>      <dbl> <int>    <dbl> <chr>               
 1    10     2 accuracy  binary     0.994     5 0.00130  Preprocessor1_Model1
 2    10     2 precision binary     0.868     5 0.0306   Preprocessor1_Model1
 3    10     2 roc_auc   binary     0.971     5 0.0132   Preprocessor1_Model1
 4    20     2 accuracy  binary     0.994     5 0.000777 Preprocessor1_Model2
 5    20     2 precision binary     0.812     5 0.0557   Preprocessor1_Model2
 6    20     2 roc_auc   binary     0.949     5 0.0244   Preprocessor1_Model2
 7    30     2 accuracy  binary     0.993     5 0.00101  Preprocessor1_Model3
 8    30     2 precision binary     0.781     5 0.0580   Preprocessor1_Model3
 9    30     2 roc_auc   binary     0.920     5 0.0266   Preprocessor1_Model3
10    10     5 accuracy  binary     0.994     5 0.00122  Preprocessor1_Model4
# ℹ 17 more rows
…
